Colleges
…
parsnip model object

Call:
stats::lm(formula = grad_rate ~ tuition + selectivity, data = data)

Coefficients:
                    (Intercept)                          tuition  
                        0.48662                          0.08968  
    selectivityHighly Selective  selectivityModerately Selective  
                       -0.07840                         -0.12765  
     selectivityLowly Selective         selectivityNon-selective  
                       -0.21320                         -0.20546  

# A tibble: 6 × 7
  term                  estimate std.error statistic  p.value conf.low conf.high
  <chr>                    <dbl>     <dbl>     <dbl>    <dbl>    <dbl>     <dbl>
1 (Intercept)             0.487    0.0390      12.5  1.70e-31   0.410     0.563 
2 tuition                 0.0897   0.00806     11.1  4.97e-26   0.0738    0.106 
3 selectivityHighly Se…  -0.0784   0.0180      -4.35 1.66e- 5  -0.114    -0.0430
4 selectivityModeratel…  -0.128    0.0172      -7.44 4.16e-13  -0.161    -0.0939
5 selectivityLowly Sel…  -0.213    0.0190     -11.2  2.19e-26  -0.251    -0.176 
6 selectivityNon-selec…  -0.205    0.0331      -6.20 1.12e- 9  -0.271    -0.140 

 Estimate Std. Error    z Pr(>|z|)   S 2.5 % 97.5 %
    0.623    0.00820 75.9   <0.001 Inf 0.607  0.639
    0.563    0.00602 93.6   <0.001 Inf 0.552  0.575
    0.566    0.00616 91.9   <0.001 Inf 0.554  0.578
    0.693    0.00835 83.1   <0.001 Inf 0.677  0.710
    0.477    0.00677 70.6   <0.001 Inf 0.464  0.491
--- 532 rows omitted. See ?print.marginaleffects ---
…
